<?xml version="1.0" standalone="no"?>
<!DOCTYPE svg PUBLIC "-//W3C//DTD SVG 1.1//EN" "http://www.w3.org/Graphics/SVG/1.1/DTD/svg11.dtd">
<svg xmlns="http://www.w3.org/2000/svg">
<metadata>Copyright (C) 2019 by original authors @ fontello.com</metadata>
<defs>
<font id="fontello" horiz-adv-x="1000" >
<font-face font-family="fontello" font-weight="400" font-stretch="normal" units-per-em="1000" ascent="850" descent="-150" />
<missing-glyph horiz-adv-x="1000" />
<glyph glyph-name="user" unicode="&#xe800;" d="M736 128q204-72 204-122l0-106-940 0 0 106q0 50 204 122 94 34 128 69t34 95q0 22-22 49t-32 73q-2 12-9 18t-14 8-14 17-9 43q0 16 5 26t9 12l4 4q-8 50-12 88-4 54 41 112t157 58 158-58 40-112l-12-88q18-8 18-42-2-28-9-43t-14-17-14-8-9-18q-8-48-31-74t-23-48q0-60 35-95t127-69z" horiz-adv-x="940" />

<glyph glyph-name="basket" unicode="&#xe801;" d="M150 0q0 40 30 70t70 30q42 0 71-30t29-70q0-42-29-71t-71-29q-40 0-70 29t-30 71z m500 0q0 40 30 70t70 30q42 0 71-30t29-70q0-42-29-71t-71-29q-40 0-70 29t-30 71z m-322 236q-36-10-34-23t44-13l562 0 0-76q0-20-20-20l-654 0q-20 0-20 20l0 76-10 46-98 454-98 0 0 80q0 20 20 20l156 0q20 0 20-20l0-86 704 0 0-274q0-22-18-26z" horiz-adv-x="900" />

<glyph glyph-name="users" unicode="&#xe802;" d="M1000-90l-224 0 0 150q0 54-30 81t-154 89q40 30 40 84 0 16-13 33t-19 51q-2 8-14 16t-14 42q0 24 12 30-6 34-8 60-4 38 23 78t95 40 96-40 24-78l-8-60q12-6 12-30-2-34-14-42t-14-16q-6-34-19-51t-13-33q0-42 21-66t77-48q112-46 130-80 6-8 9-61t5-101l0-48z m-488 262q182-78 182-124l0-138-694 0 0 184q0 44 84 78 76 32 104 64t28 88q0 20-19 44t-25 68q-2 10-18 22t-20 56q0 14 3 23t7 13l4 2q-6 46-10 82-4 50 33 103t127 53 127-53 33-103l-10-82q14-8 14-38-4-44-20-56t-18-22q-6-44-25-68t-19-44q0-56 28-88t104-64z" horiz-adv-x="1000" />

<glyph glyph-name="search" unicode="&#xe803;" d="M772 78q30-34 6-62l-46-46q-36-32-68 0l-190 190q-74-42-156-42-128 0-223 95t-95 223 90 219 218 91 224-95 96-223q0-88-46-162z m-678 358q0-88 68-156t156-68 151 63 63 153q0 88-68 155t-156 67-151-63-63-151z" horiz-adv-x="789" />

<glyph glyph-name="cancel-squared" unicode="&#xe804;" d="M700 750q42 0 71-29t29-71l0-600q0-40-29-70t-71-30l-600 0q-40 0-70 30t-30 70l0 600q0 42 30 71t70 29l600 0z m-146-638l86 86-154 152 154 154-86 86-154-152-152 152-88-86 154-154-154-152 88-86 152 152z" horiz-adv-x="800" />

<glyph glyph-name="plus-squared" unicode="&#xe805;" d="M700 750q42 0 71-29t29-71l0-600q0-40-29-70t-71-30l-600 0q-40 0-70 30t-30 70l0 600q0 42 30 71t70 29l600 0z m-50-450l0 100-200 0 0 200-100 0 0-200-200 0 0-100 200 0 0-200 100 0 0 200 200 0z" horiz-adv-x="800" />

<glyph glyph-name="minus-squared" unicode="&#xe806;" d="M700 750q42 0 71-29t29-71l0-600q0-40-29-70t-71-30l-600 0q-40 0-70 30t-30 70l0 600q0 42 30 71t70 29l600 0z m-50-450l0 100-500 0 0-100 500 0z" horiz-adv-x="800" />

<glyph glyph-name="right-dir" unicode="&#xe807;" d="M0 580l400-230-400-230 0 460z" horiz-adv-x="400" />

<glyph glyph-name="left-dir" unicode="&#xe808;" d="M400 580l0-460-400 230z" horiz-adv-x="400" />

<glyph glyph-name="down-bold" unicode="&#xe809;" d="M760 366l-380-380-380 380 192 0 0 350 376 0 0-350 192 0z" horiz-adv-x="760" />

<glyph glyph-name="lock" unicode="&#xe80a;" d="M640 476q20 0 40-19t20-41l0-390q0-48-48-66l-60-18q-42-16-96-16l-290 0q-56 0-98 16l-60 18q-48 18-48 66l0 390q0 22 15 41t35 19l100 0 0 70q0 110 51 170t149 60 149-60 51-170l0-70 90 0z m-390 90l0-90 200 0 0 90q0 52-27 81t-73 29-73-29-27-81z" horiz-adv-x="700" />

<glyph glyph-name="lock-open" unicode="&#xe80b;" d="M640 450q20 0 40-20t20-40l0-390q0-20-14-39t-34-25l-60-20q-52-16-96-16l-290 0q-46 0-98 16l-60 20q-20 6-34 25t-14 39l0 390q0 22 15 41t35 19l400 0 0 140q0 110-100 110t-100-110l0-40-100 0 0 20q0 110 51 170t149 60q200 0 200-230l0-120 90 0z" horiz-adv-x="700" />

<glyph glyph-name="cancel" unicode="&#xe80c;" d="M452 194q18-18 18-43t-18-43q-18-16-43-16t-43 16l-132 152-132-152q-18-16-43-16t-43 16q-16 18-16 43t16 43l138 156-138 158q-16 18-16 43t16 43q18 16 43 16t43-16l132-152 132 152q18 16 43 16t43-16q18-18 18-43t-18-43l-138-158z" horiz-adv-x="470" />

<glyph glyph-name="block" unicode="&#xe80d;" d="M480 830q200 0 340-140t140-340q0-198-140-339t-340-141q-198 0-339 141t-141 339q0 200 141 340t339 140z m258-220z m-622-260q0-132 82-230l514 514q-100 82-232 82-152 0-258-107t-106-259z m106-258z m258-106q152 0 259 107t107 257q0 130-82 232l-514-514q98-82 230-82z" horiz-adv-x="960" />

<glyph glyph-name="user-add" unicode="&#xe80e;" d="M620 128q180-64 180-122l0-106-800 0 0 202q36 14 82 26 94 34 129 69t35 95q0 22-23 48t-31 74q-2 12-23 25t-25 61q0 16 5 26t9 12l4 4q-8 50-12 88-6 54 40 112t160 58 160-58 42-112l-14-88q18-8 18-42-2-28-9-43t-14-17-14-8-9-18q-10-46-33-73t-23-49q0-60 36-95t130-69z m230 272l150 0 0-100-150 0 0-150-100 0 0 150-150 0 0 100 150 0 0 150 100 0 0-150z" horiz-adv-x="1000" />

<glyph glyph-name="check" unicode="&#xe80f;" d="M249 0q-34 0-56 28l-180 236q-16 24-12 52t26 46 51 14 47-28l118-154 296 474q16 24 43 30t53-8q24-16 30-43t-8-53l-350-560q-20-32-56-32z" horiz-adv-x="667" />
</font>
</defs>
</svg>